{
    "count": 333,
    "next": "https://ll.thespacedevs.com/2.0.0/launch/upcoming/?limit=10&mode=list&offset=10",
    "previous": null,
    "results": [
        {
            "id": "b640ae22-876c-41c9-909b-44dfd82f69a5",
            "url": "https://ll.thespacedevs.com/2.0.0/launch/b640ae22-876c-41c9-909b-44dfd82f69a5/",
            "launch_library_id": null,
            "slug": "long-march-4c-gaofen-12-05",
            "name": "Long March 4C | Gaofen-12 05",
            "status": {
                "id": 3,
                "name": "Success"
            },
            "net": "2024-10-15T23:45:00Z",
            "window_end": "2024-10-15T23:59:00Z",
            "window_start": "2024-10-15T23:31:00Z",
            "lsp_name": "China Aerospace Science and Technology Corporation",
            "mission": "Gaofen-12 05",
            "mission_type": "Earth Science",
            "pad": "Launch Area 4 (SLS-2 / 603)",
            "location": "Jiuquan Satellite Launch Center, People's Republic of China",
            "landing": null,
            "landing_success": null,
            "launcher": null,
            "orbit": null,
            "image": "https://thespacedevs-prod.nyc3.digitaloceanspaces.com/media/images/long_march_4c_image_20230801172338.jpeg",
            "infographic": null
        },
        {
            "id": "5f9fa9b2-e6f4-4e68-b4c8-2b1586cc5fba",
            "url": "https://ll.thespacedevs.com/2.0.0/launch/5f9fa9b2-e6f4-4e68-b4c8-2b1586cc5fba/",
            "launch_library_id": null,
            "slug": "falcon-9-block-5-starlink-group-8-19",
            "name": "Falcon 9 Block 5 | Starlink Group 8-19",
            "status": {
                "id": 2,
                "name": "TBD"
            },
            "net": "2024-10-17T23:53:00Z",
            "window_end": "2024-10-17T23:55:00Z",
            "window_start": "2024-10-17T19:55:00Z",
            "lsp_name": "SpaceX",
            "mission": "Starlink Group 8-19",
            "mission_type": "Communications",
            "pad": "Space Launch Complex 40",
            "location": "Cape Canaveral SFS, FL, USA",
            "landing": null,
            "landing_success": null,
            "launcher": null,
            "orbit": null,
            "image": "https://thespacedevs-prod.nyc3.digitaloceanspaces.com/media/images/falcon2520925_image_20221009234147.png",
            "infographic": null
        },
        {
            "id": "3dfcd148-b684-447a-acde-e6195dbd12f1",
            "url": "https://ll.thespacedevs.com/2.0.0/launch/3dfcd148-b684-447a-acde-e6195dbd12f1/",
            "launch_library_id": null,
            "slug": "electron-changes-in-latitudes-changes-in-attitudes",
            "name": "Electron | Changes In Latitudes, Changes In Attitudes",
            "status": {
                "id": 1,
                "name": "Go"
            },
            "net": "2024-10-19T10:30:00Z",
            "window_end": "2024-10-19T10:30:00Z",
            "window_start": "2024-10-19T10:30:00Z",
            "lsp_name": "Rocket Lab",
            "mission": "Changes In Latitudes, Changes In Attitudes",
            "mission_type": "Unknown",
            "pad": "Unknown Pad",
            "location": "Rocket Lab Launch Complex 1, Mahia Peninsula, New Zealand",
            "landing": null,
            "landing_success": null,
            "launcher": null,
            "orbit": null,
            "image": "https://thespacedevs-prod.nyc3.digitaloceanspaces.com/media/images/electron_image_20190705175640.jpeg",
            "infographic": null
        },
        {
            "id": "525ed290-dd97-4187-9118-d71f0b8285be",
            "url": "https://ll.thespacedevs.com/2.0.0/launch/525ed290-dd97-4187-9118-d71f0b8285be/",
            "launch_library_id": null,
            "slug": "falcon-9-block-5-oneweb-20",
            "name": "Falcon 9 Block 5 | OneWeb 20",
            "status": {
                "id": 2,
                "name": "TBD"
            },
            "net": "2024-10-20T05:09:00Z",
            "window_end": "2024-10-20T05:48:00Z",
            "window_start": "2024-10-20T05:09:00Z",
            "lsp_name": "SpaceX",
            "mission": "OneWeb 20",
            "mission_type": "Communications",
            "pad": "Space Launch Complex 4E",
            "location": "Vandenberg SFB, CA, USA",
            "landing": null,
            "landing_success": null,
            "launcher": null,
            "orbit": null,
            "image": "https://thespacedevs-prod.nyc3.digitaloceanspaces.com/media/images/falcon2520925_image_20240101100955.jpeg",
            "infographic": null
        },
        {
            "id": "beb6bfff-c584-42d9-9fea-e3e82a5fd32a",
            "url": "https://ll.thespacedevs.com/2.0.0/launch/beb6bfff-c584-42d9-9fea-e3e82a5fd32a/",
            "launch_library_id": null,
            "slug": "falcon-9-block-5-starlink-group-6-61",
            "name": "Falcon 9 Block 5 | Starlink Group 6-61",
            "status": {
                "id": 2,
                "name": "TBD"
            },
            "net": "2024-10-20T23:06:00Z",
            "window_end": "2024-10-21T03:06:00Z",
            "window_start": "2024-10-20T23:06:00Z",
            "lsp_name": "SpaceX",
            "mission": "Starlink Group 6-61",
            "mission_type": "Communications",
            "pad": "Space Launch Complex 40",
            "location": "Cape Canaveral SFS, FL, USA",
            "landing": null,
            "landing_success": null,
            "launcher": null,
            "orbit": null,
            "image": "https://thespacedevs-prod.nyc3.digitaloceanspaces.com/media/images/falcon2520925_image_20221009234147.png",
            "infographic": null
        },
        {
            "id": "aa429cd7-a947-430a-9956-72dff1ab9c60",
            "url": "https://ll.thespacedevs.com/2.0.0/launch/aa429cd7-a947-430a-9956-72dff1ab9c60/",
            "launch_library_id": null,
            "slug": "h3-22-dsn-3-kirameki-3",
            "name": "H3-22 | DSN 3 (Kirameki 3)",
            "status": {
                "id": 1,
                "name": "Go"
            },
            "net": "2024-10-26T06:44:00Z",
            "window_end": "2024-10-26T08:30:00Z",
            "window_start": "2024-10-26T06:44:00Z",
            "lsp_name": "Mitsubishi Heavy Industries",
            "mission": "DSN 3 (Kirameki 3)",
            "mission_type": "Communications",
            "pad": "Yoshinobu Launch Complex LP-2",
            "location": "Tanegashima Space Center, Japan",
            "landing": null,
            "landing_success": null,
            "launcher": null,
            "orbit": null,
            "image": "https://thespacedevs-prod.nyc3.digitaloceanspaces.com/media/images/h3-22_image_20230307130808.jpeg",
            "infographic": null
        },
        {
            "id": "f97bce95-052e-4fa9-80e8-dbedf16bc516",
            "url": "https://ll.thespacedevs.com/2.0.0/launch/f97bce95-052e-4fa9-80e8-dbedf16bc516/",
            "launch_library_id": null,
            "slug": "falcon-9-block-5-dragon-crs-2-spx-31",
            "name": "Falcon 9 Block 5 | Dragon CRS-2 SpX-31",
            "status": {
                "id": 2,
                "name": "TBD"
            },
            "net": "2024-10-30T04:50:00Z",
            "window_end": "2024-10-30T04:50:00Z",
            "window_start": "2024-10-30T04:50:00Z",
            "lsp_name": "SpaceX",
            "mission": "Dragon CRS-2 SpX-31",
            "mission_type": "Resupply",
            "pad": "Launch Complex 39A",
            "location": "Kennedy Space Center, FL, USA",
            "landing": null,
            "landing_success": null,
            "launcher": null,
            "orbit": null,
            "image": "https://thespacedevs-prod.nyc3.digitaloceanspaces.com/media/images/falcon2520925_image_20210520085648.jpeg",
            "infographic": null
        },
        {
            "id": "28c2b327-bb20-452d-b1df-c100265d6aa5",
            "url": "https://ll.thespacedevs.com/2.0.0/launch/28c2b327-bb20-452d-b1df-c100265d6aa5/",
            "launch_library_id": null,
            "slug": "long-march-2fg-shenzhou-19",
            "name": "Long March 2F/G | Shenzhou 19",
            "status": {
                "id": 2,
                "name": "TBD"
            },
            "net": "2024-10-31T00:00:00Z",
            "window_end": "2024-10-31T00:00:00Z",
            "window_start": "2024-10-31T00:00:00Z",
            "lsp_name": "China Aerospace Science and Technology Corporation",
            "mission": "Shenzhou 19",
            "mission_type": "Human Exploration",
            "pad": "Launch Area 4 (SLS-1 / 921)",
            "location": "Jiuquan Satellite Launch Center, People's Republic of China",
            "landing": null,
            "landing_success": null,
            "launcher": null,
            "orbit": null,
            "image": "https://thespacedevs-prod.nyc3.digitaloceanspaces.com/media/images/long_march_2_image_20210908195835.jpeg",
            "infographic": null
        },
        {
            "id": "2de44368-01af-448f-b0fb-d7aacdd86c0e",
            "url": "https://ll.thespacedevs.com/2.0.0/launch/2de44368-01af-448f-b0fb-d7aacdd86c0e/",
            "launch_library_id": null,
            "slug": "ceres-1-unknown-payload",
            "name": "Ceres-1 | Unknown Payload",
            "status": {
                "id": 2,
                "name": "TBD"
            },
            "net": "2024-10-31T00:00:00Z",
            "window_end": "2024-10-31T00:00:00Z",
            "window_start": "2024-10-31T00:00:00Z",
            "lsp_name": "Galactic Energy",
            "mission": "Unknown Payload",
            "mission_type": "Unknown",
            "pad": "Launch Area 95A",
            "location": "Jiuquan Satellite Launch Center, People's Republic of China",
            "landing": null,
            "landing_success": null,
            "launcher": null,
            "orbit": null,
            "image": "https://thespacedevs-prod.nyc3.digitaloceanspaces.com/media/images/ceres-1_image_20230722081939.jpeg",
            "infographic": null
        },
        {
            "id": "828095e3-1c38-4700-9dd2-a700162fbd15",
            "url": "https://ll.thespacedevs.com/2.0.0/launch/828095e3-1c38-4700-9dd2-a700162fbd15/",
            "launch_library_id": null,
            "slug": "new-shepard-ns-27",
            "name": "New Shepard | NS-27",
            "status": {
                "id": 2,
                "name": "TBD"
            },
            "net": "2024-10-31T00:00:00Z",
            "window_end": "2024-10-31T00:00:00Z",
            "window_start": "2024-10-31T00:00:00Z",
            "lsp_name": "Blue Origin",
            "mission": "NS-27",
            "mission_type": "Suborbital",
            "pad": "West Texas Suborbital Launch Site/ Corn Ranch",
            "location": "Corn Ranch, Van Horn, TX, USA",
            "landing": null,
            "landing_success": null,
            "launcher": null,
            "orbit": null,
            "image": "https://thespacedevs-prod.nyc3.digitaloceanspaces.com/media/images/new_shepard_lif_image_20240621062033.jpeg",
            "infographic": null
        }
    ]
}